% Generated by IEEEtran.bst, version: 1.14 (2015/08/26)
\begin{thebibliography}{10}
\providecommand{\url}[1]{#1}
\csname url@samestyle\endcsname
\providecommand{\newblock}{\relax}
\providecommand{\bibinfo}[2]{#2}
\providecommand{\BIBentrySTDinterwordspacing}{\spaceskip=0pt\relax}
\providecommand{\BIBentryALTinterwordstretchfactor}{4}
\providecommand{\BIBentryALTinterwordspacing}{\spaceskip=\fontdimen2\font plus
\BIBentryALTinterwordstretchfactor\fontdimen3\font minus
  \fontdimen4\font\relax}
\providecommand{\BIBforeignlanguage}[2]{{%
\expandafter\ifx\csname l@#1\endcsname\relax
\typeout{** WARNING: IEEEtran.bst: No hyphenation pattern has been}%
\typeout{** loaded for the language `#1'. Using the pattern for}%
\typeout{** the default language instead.}%
\else
\language=\csname l@#1\endcsname
\fi
#2}}
\providecommand{\BIBdecl}{\relax}
\BIBdecl

\bibitem{Lafferriere2001}
G.~Lafferriere, G.~J. Pappas, and S.~Yovine, ``Symbolic reachability
  computation for families of linear vector fields,'' \emph{Symbolic
  Computation}, vol.~32, pp. 231--253, 2001.

\bibitem{Althoff2015a}
M.~Althoff, ``An introduction to {CORA} 2015,'' in \emph{Proc. of the Workshop
  on Applied Verification for Continuous and Hybrid Systems}, 2015, pp.
  120--151.

\bibitem{Althoff2016a}
M.~Althoff and D.~Grebenyuk, ``Implementation of interval arithmetic in {CORA}
  2016,'' in \emph{Proc. of the 3rd International Workshop on Applied
  Verification for Continuous and Hybrid Systems}, 2016, pp. 91--105.

\bibitem{Althoff2018b}
M.~Althoff, D.~Grebenyuk, and N.~Kochdumper, ``Implementation of {Taylor}
  models in {CORA} 2018,'' in \emph{Proc. of the 5th International Workshop on
  Applied Verification for Continuous and Hybrid Systems}, 2018.

\bibitem{Girard2005}
A.~Girard, ``Reachability of uncertain linear systems using zonotopes,'' in
  \emph{Hybrid Systems: Computation and Control}, ser. LNCS 3414.\hskip 1em
  plus 0.5em minus 0.4em\relax Springer, 2005, pp. 291--305.

\bibitem{Althoff2010a}
M.~Althoff, ``Reachability analysis and its application to the safety
  assessment of autonomous cars,'' Dissertation, Technische Universit\"{a}t
  M\"{u}nchen, 2010,
  http://nbn-resolving.de/urn/resolver.pl?urn:nbn:de:bvb:91-diss-20100715-963752-1-4.

\bibitem{Althoff2014a}
M.~Althoff and B.~H. Krogh, ``Reachability analysis of nonlinear
  differential-algebraic systems,'' \emph{IEEE Transactions on Automatic
  Control}, vol.~59, no.~2, pp. 371--383, 2014.

\bibitem{Gover2010}
E.~Gover and N.~Krikorian, ``Determinants and the volumes of parallelotopes and
  zonotopes,'' \emph{Linear Algebra and its Applications}, vol. 433, no.~1, pp.
  28--40, 2010.

\bibitem{Althoff2011b}
M.~Althoff, B.~H. Krogh, and O.~Stursberg, \emph{Modeling, Design, and
  Simulation of Systems with Uncertainties}.\hskip 1em plus 0.5em minus
  0.4em\relax Springer, 2011, ch. Analyzing Reachability of Linear Dynamic
  Systems with Parametric Uncertainties, pp. 69--94.

\bibitem{Kopetzki2017}
A.-K. Kopetzki, B.~Sch\"urmann, and M.~Althoff, ``Methods for order reduction
  of zonotopes,'' in \emph{Proc. of the 56th IEEE Conference on Decision and
  Control}, 2017, pp. 5626--5633.

\bibitem{Combastel2003}
C.~Combastel, ``A state bounding observer based on zonotopes,'' in \emph{Proc.
  of the European Control Conference}, 2003.

\bibitem{Althoff2011f}
M.~Althoff and B.~H. Krogh, ``Zonotope bundles for the efficient computation of
  reachable sets,'' in \emph{Proc. of the 50th IEEE Conference on Decision and
  Control}, 2011, pp. 6814--6821.

\bibitem{Althoff2013a}
M.~Althoff, ``Reachability analysis of nonlinear systems using conservative
  polynomialization and non-convex sets,'' in \emph{Hybrid Systems: Computation
  and Control}, 2013, pp. 173--182.

\bibitem{Hoefkens2001}
J.~Hoefkens, M.~Berz, and K.~Makino, \emph{Scientific Computing, Validated
  Numerics, Interval Methods}.\hskip 1em plus 0.5em minus 0.4em\relax Springer,
  2001, ch. Verified High-Order Integration of {DAEs} and Higher-Order {ODEs},
  pp. 281--292.

\bibitem{Althoff2009d}
M.~Althoff, O.~Stursberg, and M.~Buss, ``Safety assessment for stochastic
  linear systems using enclosing hulls of probability density functions,'' in
  \emph{Proc. of the European Control Conference}, 2009, pp. 625--630.

\bibitem{Berleant1993}
D.~Berleant, ``Automatically verified reasoning with both intervals and
  probability density functions,'' \emph{Interval Computations}, vol.~2, pp.
  48--70, 1993.

\bibitem{Scott2016}
J.~K. Scott, D.~M. Raimondo, G.~R. Marseglia, and R.~D. Braatz, ``Constrained
  zonotopes: A new tool for set-based estimation and fault detection,''
  \emph{Automatica}, vol.~69, pp. 126--136, 2016.

\bibitem{Ziegler1995}
G.~M. Ziegler, \emph{Lectures on Polytopes}, ser. Graduate Texts in
  Mathematics.\hskip 1em plus 0.5em minus 0.4em\relax Springer, 1995.

\bibitem{Kaibel2003}
V.~Kaibel and M.~E. Pfetsch, \emph{Algebra, Geometry and Software
  Systems}.\hskip 1em plus 0.5em minus 0.4em\relax Springer, 2003, ch. Some
  Algorithmic Problems in Polytope Theory, pp. 23--47.

\bibitem{Makino2003}
K.~Makino and M.~Berz, ``Taylor models and other validated functional inclusion
  methods,'' \emph{International Journal of Pure and Applied Mathematics},
  vol.~4, no.~4, pp. 379--456, 2003.

\bibitem{Makino1996}
\BIBentryALTinterwordspacing
------, ``{Remainder Differential Algebras and Their Applications},'' 1996.
  [Online]. Available: \url{http://bt.pa.msu.edu/pub/papers/rdasf/rdasf.pdf}
\BIBentrySTDinterwordspacing

\bibitem{Neher2007}
M.~Neher, K.~R. Jackson, and N.~S. Nedialkov, ``On {Taylor} model based
  integration of {ODEs},'' \emph{SIAM Journal on Numerical Analysis}, vol.~45,
  no.~1, pp. 236--262, 2007.

\bibitem{Nedialkov2004}
N.~S. Nedialkov, V.~Kreinovich, and S.~A. Starks, ``Interval arithmetic, affine
  arithmetic, {Taylor} series methods: Why, what next?'' \emph{Numerical
  Algorithms}, vol.~37, pp. 325--336, 2004.

\bibitem{Berz1997}
\BIBentryALTinterwordspacing
M.~Berz, ``{From Taylor Series to Taylor Models},'' vol. 405, 1997. [Online].
  Available: \url{http://bt.pa.msu.edu/pub/papers/taylorsb/taylorsb.pdf}
\BIBentrySTDinterwordspacing

\bibitem{Trinchero2016}
R.~Trinchero, P.~Manfredi, T.~Ding, and I.~S. Stievano, ``Combined parametric
  and worst case circuit analysis via {Taylor} models,'' \emph{IEEE
  Transactions on Circuits and Systems I: Regular Papers}, vol.~63, no.~7, pp.
  1067--1078, 2016.

\bibitem{Stursberg2003}
O.~Stursberg and B.~H. Krogh, ``Efficient representation and computation of
  reachable sets for hybrid systems,'' in \emph{Hybrid Systems: Computation and
  Control}, ser. LNCS 2623.\hskip 1em plus 0.5em minus 0.4em\relax Springer,
  2003, pp. 482--497.

\bibitem{Althoff2012b}
M.~Althoff and J.~M. Dolan, ``Reachability computation of low-order models for
  the safety verification of high-order road vehicle models,'' in \emph{Proc.
  of the American Control Conference}, 2012, pp. 3559--3566.

\bibitem{Althoff2011a}
M.~Althoff, C.~{Le Guernic}, and B.~H. Krogh, ``Reachable set computation for
  uncertain time-varying linear systems,'' in \emph{Hybrid Systems: Computation
  and Control}, 2011, pp. 93--102.

\bibitem{Gardiner1983}
C.~W. Gardiner, \emph{Handbook of Stochastic Methods: For Physics, Chemistry
  and the Natural Sciences}, H.~Haken, Ed.\hskip 1em plus 0.5em minus
  0.4em\relax Springer, 1983.

\bibitem{Althoff2008c}
M.~Althoff, O.~Stursberg, and M.~Buss, ``Reachability analysis of nonlinear
  systems with uncertain parameters using conservative linearization,'' in
  \emph{Proc. of the 47th IEEE Conference on Decision and Control}, 2008, pp.
  4042--4048.

\bibitem{Ascher1998}
U.~M. Ascher and L.~R. Petzold, \emph{Computer Methods for Ordinary
  Differential Equations and Differential-Algebraic Equations}.\hskip 1em plus
  0.5em minus 0.4em\relax SIAM: Society for Industrial and Applied Mathematics,
  1998.

\bibitem{Brenan1989}
K.~E. Brenan, S.~L. Campbell, and L.~R. Petzold, \emph{Numerical Solution of
  Initial Value Problems in Differential-Algebraic Equations}.\hskip 1em plus
  0.5em minus 0.4em\relax North-Holland, 1989.

\bibitem{Althoff2009b}
M.~Althoff, O.~Stursberg, and M.~Buss, ``Computing reachable sets of hybrid
  systems using a combination of zonotopes and polytopes,'' \emph{Nonlinear
  Analysis: Hybrid Systems}, vol.~4, no.~2, pp. 233--249, 2010.

\bibitem{Althoff2012a}
M.~Althoff and B.~H. Krogh, ``Avoiding geometric intersection operations in
  reachability analysis of hybrid systems,'' in \emph{Hybrid Systems:
  Computation and Control}, 2012, pp. 45--54.

\bibitem{Minopoli2016}
S.~Minopoli and G.~Frehse, ``{SL2SX} translator: From simulink to spaceex
  models,'' in \emph{Proc. of the 19th International Conference on Hybrid
  Systems: Computation and Control}, 2016, pp. 93--98.

\bibitem{Bak2015}
S.~Bak, S.~Bogomolov, and T.~T. Johnson, ``{HYST}: a source transformation and
  translation tool for hybrid automaton models,'' in \emph{Proc. of the 18th
  International Conference on Hybrid Systems: Computation and Control}, 2015.

\bibitem{Althoff2011e}
M.~Althoff and J.~M. Dolan, ``Set-based computation of vehicle behaviors for
  the online verification of autonomous vehicles,'' in \emph{Proc. of the 14th
  IEEE Conference on Intelligent Transportation Systems}, 2011, pp. 1162--1167.

\bibitem{Althoff2014b}
------, ``Online verification of automated road vehicles using reachability
  analysis,'' \emph{IEEE Transactions on Robotics}, vol.~30, no.~4, pp.
  903--918, 2014.

\bibitem{Althoff2012c}
M.~Althoff, M.~Cvetkovi{\'c}, and M.~Ili{\'c}, ``Transient stability analysis
  by reachable set computation,'' in \emph{Proc. of the IEEE PES Conference on
  Innovative Smart Grid Technologies Europe}, 2012, pp. 1--8.

\bibitem{Althoff2014c}
M.~Althoff, ``Formal and compositional analysis of power systems using
  reachable sets,'' \emph{IEEE Transactions on Power Systems}, vol.~29, no.~5,
  pp. 2270--2280, 2014.

\bibitem{Girard2008}
A.~Girard and C.~{Le Guernic}, ``Zonotope/hyperplane intersection for hybrid
  systems reachability analysis,'' in \emph{Proc. of Hybrid Systems:
  Computation and Control}, ser. LNCS 4981.\hskip 1em plus 0.5em minus
  0.4em\relax Springer, 2008, pp. 215--228.

\bibitem{Frehse2008}
G.~Frehse, ``{PHAVer}: Algorithmic verification of hybrid systems past
  {HyTech},'' \emph{International Journal on Software Tools for Technology
  Transfer}, vol.~10, pp. 263--279, 2008.

\bibitem{Frehse2011}
G.~Frehse, C.~L. Guernic, A.~Donz\'e, S.~Cotton, R.~Ray, O.~Lebeltel,
  R.~Ripado, A.~Girard, T.~Dang, and O.~Maler, ``{SpaceEx}: Scalable
  verification of hybrid systems,'' in \emph{Proc. of the 23rd International
  Conference on Computer Aided Verification}, ser. LNCS 6806.\hskip 1em plus
  0.5em minus 0.4em\relax Springer, 2011, pp. 379--395.

\bibitem{Ramdani2011b}
N.~Ramdani and N.~S. Nedialkov, ``Computing reachable sets for uncertain
  nonlinear hybrid systems using interval constraint-propagation techniques,''
  \emph{Nonlinear Analysis: Hybrid Systems}, vol.~5, no.~2, pp. 149--162, 2010.

\bibitem{Frehse2012}
G.~Frehse and R.~Ray, ``Flowpipe-guard intersection for reachability
  computations with support functions,'' in \emph{Proc. of Analysis and Design
  of Hybrid Systems}, 2012, pp. 94--101.

\bibitem{Chen2015b}
X.~Chen, ``Reachability analysis of non-linear hybrid systems using taylor
  models,'' Ph.D. dissertation, RWTH Aachen University, 2015.

\bibitem{Schaft2000}
A.~van~der Schaft and H.~Schumacher, \emph{An Introduction to Hybrid Dynamical
  Systems}.\hskip 1em plus 0.5em minus 0.4em\relax Springer, 2000.

\end{thebibliography}
