*** This is hycomp 1.1.0 (compiled on Fri Mar 29 14:32:07 2019)
*** Copyright (c) 2014, Fondazione Bruno Kessler

*** For more information on hycomp see https://es.fbk.eu/tools/hycomp
*** or email to <hycomp@list.fbk.eu>.
*** Please report bugs at not available
*** (click on "Login Anonymously" to access)
*** Alternatively write to <hycomp@list.fbk.eu>.

*** This version of hycomp is linked to NuSMV 2.6.0.
*** For more information on NuSMV see <http://nusmv.fbk.eu>
*** or email to <nusmv-users@list.fbk.eu>.
*** Copyright (C) 2010-2014, Fondazione Bruno Kessler

*** This version of hycomp is linked to the CUDD library version 2.4.1
*** Copyright (c) 1995-2004, Regents of the University of Colorado

*** This version of hycomp is linked to the MiniSat SAT solver. 
*** See http://minisat.se/MiniSat.html
*** Copyright (c) 2003-2006, Niklas Een, Niklas Sorensson
*** Copyright (c) 2007-2010, Niklas Sorensson

*** This version of hycomp is linked to MathSAT
*** Copyright (C) 2014 by Fondazione Bruno Kessler
*** Copyright (C) 2014 by University of Trento
*** See http://mathsat.fbk.eu

Compiling model... 
elapse: 0.00 seconds, total: 0.00 seconds
Proving properties 
elapse: 0.04 seconds, total: 0.04 seconds
-- invariant !platoon.crash  is true
**** PROPERTY LIST [ Type, Status, Counter-example Number, Name ] ****
--------------------------  PROPERTY LIST  -------------------------
000 :!platoon.crash 
  [Invar          True           N/A    SAFE]
elapse: 0.01 seconds, total: 0.05 seconds
All done! 
