*** This is hycomp 1.1.0 (compiled on Fri Mar 29 14:32:07 2019)
*** Copyright (c) 2014, Fondazione Bruno Kessler

*** For more information on hycomp see https://es.fbk.eu/tools/hycomp
*** or email to <hycomp@list.fbk.eu>.
*** Please report bugs at not available
*** (click on "Login Anonymously" to access)
*** Alternatively write to <hycomp@list.fbk.eu>.

*** This version of hycomp is linked to NuSMV 2.6.0.
*** For more information on NuSMV see <http://nusmv.fbk.eu>
*** or email to <nusmv-users@list.fbk.eu>.
*** Copyright (C) 2010-2014, Fondazione Bruno Kessler

*** This version of hycomp is linked to the CUDD library version 2.4.1
*** Copyright (c) 1995-2004, Regents of the University of Colorado

*** This version of hycomp is linked to the MiniSat SAT solver. 
*** See http://minisat.se/MiniSat.html
*** Copyright (c) 2003-2006, Niklas Een, Niklas Sorensson
*** Copyright (c) 2007-2010, Niklas Sorensson

*** This version of hycomp is linked to MathSAT
*** Copyright (C) 2014 by Fondazione Bruno Kessler
*** Copyright (C) 2014 by University of Trento
*** See http://mathsat.fbk.eu

Compiling model... 
elapse: 0.01 seconds, total: 0.01 seconds
Proving properties 
elapse: 0.07 seconds, total: 0.08 seconds
input model statistics:
statevars = 42
inputs = 26
theories = la 
trans size = 2383
non-linear multiplications (init|trans|prop) = 0|0|0
exponentials (init|trans|prop) = 0|0|0
sin (init|trans|prop) = 0|0|0
   1 : 0 {33|0}
   2 : 1 0 {33|0}
   3 : 1 2 0 {33|0}
   4 : 5 13 9 0 {33|0}
   5 : 5 13 9 3 1 {33|0}
   6 : 6 16 15 26 8 17 {33|0}
   7 : 6 16 15 30 20 6 29 {33|0}
   8 : 6 16 15 30 22 10 0 37 {33|0}
-- invariant !(((((sensor_1.location = send & sensor_2.location = send) & sensor_3.location = send) & sensor_4.location = send) & sensor_5.location = send) & sensor_6.location = send)  is true
**** PROPERTY LIST [ Type, Status, Counter-example Number, Name ] ****
--------------------------  PROPERTY LIST  -------------------------
000 :!(((((sensor_1.location = send & sensor_2.location = send) & sensor_3.location = send) & sensor_4.location = send) & sensor_5.location = send) & sensor_6.location = send) 
  [Invar          True           N/A    N/A]
elapse: 1.23 seconds, total: 1.32 seconds
All done! 
