*** This is hycomp 1.1.0 (compiled on Fri Mar 29 14:32:07 2019)
*** Copyright (c) 2014, Fondazione Bruno Kessler

*** For more information on hycomp see https://es.fbk.eu/tools/hycomp
*** or email to <hycomp@list.fbk.eu>.
*** Please report bugs at not available
*** (click on "Login Anonymously" to access)
*** Alternatively write to <hycomp@list.fbk.eu>.

*** This version of hycomp is linked to NuSMV 2.6.0.
*** For more information on NuSMV see <http://nusmv.fbk.eu>
*** or email to <nusmv-users@list.fbk.eu>.
*** Copyright (C) 2010-2014, Fondazione Bruno Kessler

*** This version of hycomp is linked to the CUDD library version 2.4.1
*** Copyright (c) 1995-2004, Regents of the University of Colorado

*** This version of hycomp is linked to the MiniSat SAT solver. 
*** See http://minisat.se/MiniSat.html
*** Copyright (c) 2003-2006, Niklas Een, Niklas Sorensson
*** Copyright (c) 2007-2010, Niklas Sorensson

*** This version of hycomp is linked to MathSAT
*** Copyright (C) 2014 by Fondazione Bruno Kessler
*** Copyright (C) 2014 by University of Trento
*** See http://mathsat.fbk.eu

Compiling model... 
elapse: 0.00 seconds, total: 0.00 seconds
Proving properties 
elapse: 0.05 seconds, total: 0.05 seconds
input model statistics:
statevars = 19
inputs = 20
theories = la 
trans size = 998
non-linear multiplications (init|trans|prop) = 0|0|0
exponentials (init|trans|prop) = 0|0|0
sin (init|trans|prop) = 0|0|0
   1 : 0 {11|0}
   2 : 1 0 {11|0}
   3 : 5 5 0 {11|0}
   4 : 9 17 10 1 {11|0}
   5 : 17 25 26 11 5 {13|1}
-- invariant (((((TRUE & !not_safe_aut1) & !not_safe_aut2) & !not_safe_aut3) & !not_safe_aut4) & !not_safe_aut5)  is false, a counter-example of size 6 exists
-- as demonstrated by the following execution sequence
Trace Description: IC3 smt counterexample 
Trace Type: Counterexample 
  -> State: 1.1 <-
    aut5.loc = idle
    aut5.x = 0.0
    aut4.loc = idle
    aut4.x = 0.0
    aut3.loc = idle
    aut3.x = 0.0
    aut2.loc = idle
    aut2.x = 0.0
    aut1.loc = idle
    aut1.x = 0.0
    sv.loc = 0
    not_safe_aut1 = FALSE
    not_safe_aut2 = FALSE
    not_safe_aut3 = FALSE
    not_safe_aut4 = FALSE
    not_safe_aut5 = FALSE
    aut5.crit = FALSE
    aut4.crit = FALSE
    aut3.crit = FALSE
    aut2.crit = FALSE
    aut1.crit = FALSE
  -> Input: 1.2 <-
    aut5.delta = 0.0
    aut4.delta = 0.0
    aut3.delta = 0.0
    aut2.delta = 0.0
    aut1.delta = 0.0
    sv.delta = 0.0
    aut5.EVENT = stutter
    aut4.EVENT = eq0
    aut3.EVENT = stutter
    aut2.EVENT = stutter
    aut1.EVENT = stutter
    sv.EVENT = A4eq0
  -> State: 1.2 <-
    aut4.loc = set
  -> Input: 1.3 <-
    aut5.EVENT = eq0
    aut4.EVENT = stutter
    sv.EVENT = A5eq0
  -> State: 1.3 <-
    aut5.loc = set
  -> Input: 1.4 <-
    aut5.EVENT = stutter
    aut4.EVENT = wr1
    sv.EVENT = A4wr1
  -> State: 1.4 <-
    aut4.loc = test
    sv.loc = 4
  -> Input: 1.5 <-
    aut4.EVENT = eq1
    sv.EVENT = A4eq1
  -> State: 1.5 <-
    aut4.loc = cs
    aut4.crit = TRUE
  -> Input: 1.6 <-
    aut5.EVENT = wr1
    aut4.EVENT = stutter
    sv.EVENT = A5wr1
  -> State: 1.6 <-
    aut5.loc = test
    sv.loc = 5
  -> Input: 1.7 <-
    aut5.EVENT = eq1
    sv.EVENT = A5eq1
  -> State: 1.7 <-
    aut5.loc = cs
    not_safe_aut4 = TRUE
    not_safe_aut5 = TRUE
    aut5.crit = TRUE
**** PROPERTY LIST [ Type, Status, Counter-example Number, Name ] ****
--------------------------  PROPERTY LIST  -------------------------
000 :(((((TRUE & !not_safe_aut1) & !not_safe_aut2) & !not_safe_aut3) & !not_safe_aut4) & !not_safe_aut5) 
  [Invar          False          1      SAFE]
elapse: 0.38 seconds, total: 0.43 seconds
All done! 
