*** This is hycomp 1.1.0 (compiled on Fri Mar 29 14:32:07 2019)
*** Copyright (c) 2014, Fondazione Bruno Kessler

*** For more information on hycomp see https://es.fbk.eu/tools/hycomp
*** or email to <hycomp@list.fbk.eu>.
*** Please report bugs at not available
*** (click on "Login Anonymously" to access)
*** Alternatively write to <hycomp@list.fbk.eu>.

*** This version of hycomp is linked to NuSMV 2.6.0.
*** For more information on NuSMV see <http://nusmv.fbk.eu>
*** or email to <nusmv-users@list.fbk.eu>.
*** Copyright (C) 2010-2014, Fondazione Bruno Kessler

*** This version of hycomp is linked to the CUDD library version 2.4.1
*** Copyright (c) 1995-2004, Regents of the University of Colorado

*** This version of hycomp is linked to the MiniSat SAT solver. 
*** See http://minisat.se/MiniSat.html
*** Copyright (c) 2003-2006, Niklas Een, Niklas Sorensson
*** Copyright (c) 2007-2010, Niklas Sorensson

*** This version of hycomp is linked to MathSAT
*** Copyright (C) 2014 by Fondazione Bruno Kessler
*** Copyright (C) 2014 by University of Trento
*** See http://mathsat.fbk.eu

Compiling model... 
elapse: 0.01 seconds, total: 0.01 seconds
Proving properties 
elapse: 0.07 seconds, total: 0.07 seconds
input model statistics:
statevars = 41
inputs = 30
theories = la 
trans size = 1045
non-linear multiplications (init|trans|prop) = 0|0|0
exponentials (init|trans|prop) = 0|0|0
sin (init|trans|prop) = 0|0|0
   1 : 0 {91|0}
   2 : 1 0 {91|0}
   3 : 17 21 18 {107|3}
   4 : 17 20 7 20 {107|3}
   5 : 17 20 5 1 51 {107|3}
   6 : 17 20 5 1 0 51 {107|3}
-- invariant !((((((((((((((((((((((((((((((((((((((((((((((((((((((((FALSE | s1.SM_x - s2.SM_x > 2 * max_drift) | s1.SM_x - s3.SM_x > 2 * max_drift) | s1.SM_x - s4.SM_x > 2 * max_drift) | s1.SM_x - s5.SM_x > 2 * max_drift) | s1.SM_x - s6.SM_x > 2 * max_drift) | s1.SM_x - s7.SM_x > 2 * max_drift) | s1.SM_x - s8.SM_x > 2 * max_drift) | s2.SM_x - s1.SM_x > 2 * max_drift) | s2.SM_x - s3.SM_x > 2 * max_drift) | s2.SM_x - s4.SM_x > 2 * max_drift) | s2.SM_x - s5.SM_x > 2 * max_drift) | s2.SM_x - s6.SM_x > 2 * max_drift) | s2.SM_x - s7.SM_x > 2 * max_drift) | s2.SM_x - s8.SM_x > 2 * max_drift) | s3.SM_x - s1.SM_x > 2 * max_drift) | s3.SM_x - s2.SM_x > 2 * max_drift) | s3.SM_x - s4.SM_x > 2 * max_drift) | s3.SM_x - s5.SM_x > 2 * max_drift) | s3.SM_x - s6.SM_x > 2 * max_drift) | s3.SM_x - s7.SM_x > 2 * max_drift) | s3.SM_x - s8.SM_x > 2 * max_drift) | s4.SM_x - s1.SM_x > 2 * max_drift) | s4.SM_x - s2.SM_x > 2 * max_drift) | s4.SM_x - s3.SM_x > 2 * max_drift) | s4.SM_x - s5.SM_x > 2 * max_drift) | s4.SM_x - s6.SM_x > 2 * max_drift) | s4.SM_x - s7.SM_x > 2 * max_drift) | s4.SM_x - s8.SM_x > 2 * max_drift) | s5.SM_x - s1.SM_x > 2 * max_drift) | s5.SM_x - s2.SM_x > 2 * max_drift) | s5.SM_x - s3.SM_x > 2 * max_drift) | s5.SM_x - s4.SM_x > 2 * max_drift) | s5.SM_x - s6.SM_x > 2 * max_drift) | s5.SM_x - s7.SM_x > 2 * max_drift) | s5.SM_x - s8.SM_x > 2 * max_drift) | s6.SM_x - s1.SM_x > 2 * max_drift) | s6.SM_x - s2.SM_x > 2 * max_drift) | s6.SM_x - s3.SM_x > 2 * max_drift) | s6.SM_x - s4.SM_x > 2 * max_drift) | s6.SM_x - s5.SM_x > 2 * max_drift) | s6.SM_x - s7.SM_x > 2 * max_drift) | s6.SM_x - s8.SM_x > 2 * max_drift) | s7.SM_x - s1.SM_x > 2 * max_drift) | s7.SM_x - s2.SM_x > 2 * max_drift) | s7.SM_x - s3.SM_x > 2 * max_drift) | s7.SM_x - s4.SM_x > 2 * max_drift) | s7.SM_x - s5.SM_x > 2 * max_drift) | s7.SM_x - s6.SM_x > 2 * max_drift) | s7.SM_x - s8.SM_x > 2 * max_drift) | s8.SM_x - s1.SM_x > 2 * max_drift) | s8.SM_x - s2.SM_x > 2 * max_drift) | s8.SM_x - s3.SM_x > 2 * max_drift) | s8.SM_x - s4.SM_x > 2 * max_drift) | s8.SM_x - s5.SM_x > 2 * max_drift) | s8.SM_x - s6.SM_x > 2 * max_drift) | s8.SM_x - s7.SM_x > 2 * max_drift)  is true
**** PROPERTY LIST [ Type, Status, Counter-example Number, Name ] ****
--------------------------  PROPERTY LIST  -------------------------
000 :!((((((((((((((((((((((((((((((((((((((((((((((((((((((((FALSE | s1.SM_x - s2.SM_x > 2 * max_drift) | s1.SM_x - s3.SM_x > 2 * max_drift) | s1.SM_x - s4.SM_x > 2 * max_drift) | s1.SM_x - s5.SM_x > 2 * max_drift) | s1.SM_x - s6.SM_x > 2 * max_drift) | s1.SM_x - s7.SM_x > 2 * max_drift) | s1.SM_x - s8.SM_x > 2 * max_drift) | s2.SM_x - s1.SM_x > 2 * max_drift) | s2.SM_x - s3.SM_x > 2 * max_drift) | s2.SM_x - s4.SM_x > 2 * max_drift) | s2.SM_x - s5.SM_x > 2 * max_drift) | s2.SM_x - s6.SM_x > 2 * max_drift) | s2.SM_x - s7.SM_x > 2 * max_drift) | s2.SM_x - s8.SM_x > 2 * max_drift) | s3.SM_x - s1.SM_x > 2 * max_drift) | s3.SM_x - s2.SM_x > 2 * max_drift) | s3.SM_x - s4.SM_x > 2 * max_drift) | s3.SM_x - s5.SM_x > 2 * max_drift) | s3.SM_x - s6.SM_x > 2 * max_drift) | s3.SM_x - s7.SM_x > 2 * max_drift) | s3.SM_x - s8.SM_x > 2 * max_drift) | s4.SM_x - s1.SM_x > 2 * max_drift) | s4.SM_x - s2.SM_x > 2 * max_drift) | s4.SM_x - s3.SM_x > 2 * max_drift) | s4.SM_x - s5.SM_x > 2 * max_drift) | s4.SM_x - s6.SM_x > 2 * max_drift) | s4.SM_x - s7.SM_x > 2 * max_drift) | s4.SM_x - s8.SM_x > 2 * max_drift) | s5.SM_x - s1.SM_x > 2 * max_drift) | s5.SM_x - s2.SM_x > 2 * max_drift) | s5.SM_x - s3.SM_x > 2 * max_drift) | s5.SM_x - s4.SM_x > 2 * max_drift) | s5.SM_x - s6.SM_x > 2 * max_drift) | s5.SM_x - s7.SM_x > 2 * max_drift) | s5.SM_x - s8.SM_x > 2 * max_drift) | s6.SM_x - s1.SM_x > 2 * max_drift) | s6.SM_x - s2.SM_x > 2 * max_drift) | s6.SM_x - s3.SM_x > 2 * max_drift) | s6.SM_x - s4.SM_x > 2 * max_drift) | s6.SM_x - s5.SM_x > 2 * max_drift) | s6.SM_x - s7.SM_x > 2 * max_drift) | s6.SM_x - s8.SM_x > 2 * max_drift) | s7.SM_x - s1.SM_x > 2 * max_drift) | s7.SM_x - s2.SM_x > 2 * max_drift) | s7.SM_x - s3.SM_x > 2 * max_drift) | s7.SM_x - s4.SM_x > 2 * max_drift) | s7.SM_x - s5.SM_x > 2 * max_drift) | s7.SM_x - s6.SM_x > 2 * max_drift) | s7.SM_x - s8.SM_x > 2 * max_drift) | s8.SM_x - s1.SM_x > 2 * max_drift) | s8.SM_x - s2.SM_x > 2 * max_drift) | s8.SM_x - s3.SM_x > 2 * max_drift) | s8.SM_x - s4.SM_x > 2 * max_drift) | s8.SM_x - s5.SM_x > 2 * max_drift) | s8.SM_x - s6.SM_x > 2 * max_drift) | s8.SM_x - s7.SM_x > 2 * max_drift) 
  [Invar          True           N/A    SAFE]
elapse: 0.75 seconds, total: 0.83 seconds
All done! 
