Warning: -load is deprecated
-- no proof or counter-example found with bound 0
Reduction: cex ruled out by a susbet of the predicates
-- no proof or counter-example found with bound 1
Reduction: cex ruled out by a susbet of the predicates
-- no proof or counter-example found with bound 2
Reduction: cex ruled out by a susbet of the predicates
-- no proof or counter-example found with bound 3
Reduction: cex ruled out by a susbet of the predicates
-- no proof or counter-example found with bound 4
-- no proof or counter-example found with bound 5
